﻿[
  {
    "Id": 1,
    "Name": "ChefPizza",
    "Description": "Italian"
  },
  {
    "Id": 2,
    "Name": "MuchachoBurger",
    "Description": "Mexican"
  },
  {
    "Id": 3,
    "Name": "Mc-Donalds",
    "Description": "FastFood"
  }
]